{
   "photos":{
      "page":1,
      "pages":8160,
      "perpage":30,
      "total":"244771",
      "photo":[
         {
            "id":"38324977976",
            "owner":"146701143@N06",
            "secret":"6e234586f2",
            "server":"4534",
            "farm":5,
            "title":"lego-2449333_1280",
            "ispublic":1,
            "isfriend":0,
            "isfamily":0,
            "description":{
               "_content":"Like if You Love to #Travel! I can plan the trip of a lifetime or your next great #vacation\nLEGOLAND Florida Previewing New VR Roller Coaster- During next week\u2019s annual IAAPA Attractions Expo, the LEGOLAND Florida\u2026 <a href=\"https:\/\/www.besttravelagentonline.com\/news\/legoland-florida-previewing-new-vr-roller-coaster.html\" rel=\"nofollow\">www.besttravelagentonline.com\/news\/legoland-florida-previ...<\/a>\n"
            },
            "ownername":"randy-travel",
            "tags":"legoland florida new",
            "url_s":"https:\/\/farm5.staticflickr.com\/4534\/38324977976_6e234586f2_m.jpg",
            "height_s":"149",
            "width_s":"240",
            "url_m":"https:\/\/farm5.staticflickr.com\/4534\/38324977976_6e234586f2.jpg",
            "height_m":"311",
            "width_m":"500",
            "url_l":"https:\/\/farm5.staticflickr.com\/4534\/38324977976_6e234586f2_b.jpg",
            "height_l":"636",
            "width_l":"1024"
         },
         {
            "id":"38320719126",
            "owner":"69004980@N00",
            "secret":"e10c861b9a",
            "server":"4572",
            "farm":5,
            "title":"293\/365 legoland",
            "ispublic":1,
            "isfriend":0,
            "isfamily":0,
            "description":{
               "_content":"Evan, ready for our first day at Legoland, celebrating his 5th birthday."
            },
            "ownername":"embem30",
            "tags":"2017 365 3658 project365 legoland legolandcalifornia evan",
            "url_s":"https:\/\/farm5.staticflickr.com\/4572\/38320719126_e10c861b9a_m.jpg",
            "height_s":"160",
            "width_s":"240",
            "url_m":"https:\/\/farm5.staticflickr.com\/4572\/38320719126_e10c861b9a.jpg",
            "height_m":"333",
            "width_m":"500",
            "url_l":"https:\/\/farm5.staticflickr.com\/4572\/38320719126_e10c861b9a_b.jpg",
            "height_l":"683",
            "width_l":"1024"
         },
         {
            "id":"38375143391",
            "owner":"69004980@N00",
            "secret":"d5bd8be868",
            "server":"4584",
            "farm":5,
            "title":"star wars miniland",
            "ispublic":1,
            "isfriend":0,
            "isfamily":0,
            "description":{
               "_content":"Evan's favorite scene from Star Wars Miniland was probably the Mos Eisley Cantina. There was a button that activated music and movement, and he pressed it several times."
            },
            "ownername":"embem30",
            "tags":"legoland legolandcalifornia evan starwarsminiland",
            "url_s":"https:\/\/farm5.staticflickr.com\/4584\/38375143391_d5bd8be868_m.jpg",
            "height_s":"160",
            "width_s":"240",
            "url_m":"https:\/\/farm5.staticflickr.com\/4584\/38375143391_d5bd8be868.jpg",
            "height_m":"333",
            "width_m":"500",
            "url_l":"https:\/\/farm5.staticflickr.com\/4584\/38375143391_d5bd8be868_b.jpg",
            "height_l":"683",
            "width_l":"1024"
         },
         {
            "id":"38320304196",
            "owner":"69004980@N00",
            "secret":"48061a7d6d",
            "server":"4576",
            "farm":5,
            "title":"the force awakens",
            "ispublic":1,
            "isfriend":0,
            "isfamily":0,
            "description":{
               "_content":"Star Wars Miniland. There was a scene from each of the 6 episodes, plus one from The Force Awakens. This one had a little Millenium Falcon that got chased past the wrecked destroyer."
            },
            "ownername":"embem30",
            "tags":"legoland legolandcalifornia evan steve starwarsminiland",
            "url_s":"https:\/\/farm5.staticflickr.com\/4576\/38320304196_48061a7d6d_m.jpg",
            "height_s":"160",
            "width_s":"240",
            "url_m":"https:\/\/farm5.staticflickr.com\/4576\/38320304196_48061a7d6d.jpg",
            "height_m":"333",
            "width_m":"500",
            "url_l":"https:\/\/farm5.staticflickr.com\/4576\/38320304196_48061a7d6d_b.jpg",
            "height_l":"683",
            "width_l":"1024"
         }
      ]
   },
   "stat":"ok"
}
